{
  "$schema": "../../node_modules/ng-packagr/ng-package.schema.json",
  "dest": "../../dist/ngx-rules",
  "whitelistedNonPeerDependencies": [
    "gijgo",
    "esprima"
  ],
  "lib": {
    "entryFile": "src/public_api.ts"
  }
}